{
  "success": true,
  "data": {
    "calls": [
      {
        "id": "bb779abe-7c1d-4bf4-9b6b-300b623b6638",
        "businessId": "6bef30a4-fc1b-4fb0-a438-9a85f87713b4",
        "customerId": null,
        "phoneNumberId": null,
        "assistantId": "bc1f093d-d27c-46d2-a606-95873f56be29",
        "callerPhone": null,
        "vapiCallId": "019b6652-1182-7889-8bb7-2a56df4953ba",
        "status": "completed",
        "duration": 0,
        "recordingUrl": null,
        "transcriptText": "",
        "transcriptJson": null,
        "cost": "0.0315",
        "startedAt": "2025-12-28T18:56:54.078Z",
        "endedAt": "2025-12-28T18:57:25.254Z",
        "endedReason": "customer-ended-call",
        "summary": null,
        "createdAt": "2026-01-08T22:14:47.970Z",
        "updatedAt": "2026-01-08T22:15:04.933Z",
        "business": {
          "id": "6bef30a4-fc1b-4fb0-a438-9a85f87713b4",
          "name": "Callnfy"
        },
        "customer": null,
        "phoneNumber": null
      },
      {
        "id": "d51b167b-5e04-4798-a7c2-0120834edd7a",
        "businessId": "6bef30a4-fc1b-4fb0-a438-9a85f87713b4",
        "customerId": null,
        "phoneNumberId": null,
        "assistantId": "bc1f093d-d27c-46d2-a606-95873f56be29",
        "callerPhone": null,
        "vapiCallId": "019b6652-a51a-7339-a872-20b2e3cdfc7a",
        "status": "completed",
        "duration": 0,
        "recordingUrl": null,
        "transcriptText": "",
        "transcriptJson": null,
        "cost": "0.0877",
        "startedAt": "2025-12-28T18:57:32.076Z",
        "endedAt": "2025-12-28T18:58:30.810Z",
        "endedReason": "customer-ended-call",
        "summary": null,
        "createdAt": "2026-01-08T22:14:47.946Z",
        "updatedAt": "2026-01-08T22:15:04.894Z",
        "business": {
          "id": "6bef30a4-fc1b-4fb0-a438-9a85f87713b4",
          "name": "Callnfy"
        },
        "customer": null,
        "phoneNumber": null
      },
      {
        "id": "86693cf5-d57d-447e-94cd-512b3d6b54f0",
        "businessId": "6bef30a4-fc1b-4fb0-a438-9a85f87713b4",
        "customerId": null,
        "phoneNumberId": null,
        "assistantId": "bc1f093d-d27c-46d2-a606-95873f56be29",
        "callerPhone": null,
        "vapiCallId": "019b6696-0a75-799d-8812-6b0d76844a1f",
        "status": "completed",
        "duration": 0,
        "recordingUrl": null,
        "transcriptText": "",
        "transcriptJson": null,
        "cost": "0.2240",
        "startedAt": "2025-12-28T20:11:08.597Z",
        "endedAt": "2025-12-28T20:13:24.916Z",
        "endedReason": "customer-ended-call",
        "summary": null,
        "createdAt": "2026-01-08T22:14:47.922Z",
        "updatedAt": "2026-01-08T22:15:04.863Z",
        "business": {
          "id": "6bef30a4-fc1b-4fb0-a438-9a85f87713b4",
          "name": "Callnfy"
        },
        "customer": null,
        "phoneNumber": null
      },
      {
        "id": "51ef14a1-f884-4dfb-a8f2-5f0c27cf38ef",
        "businessId": "6bef30a4-fc1b-4fb0-a438-9a85f87713b4",
        "customerId": null,
        "phoneNumberId": null,
        "assistantId": "bc1f093d-d27c-46d2-a606-95873f56be29",
        "callerPhone": null,
        "vapiCallId": "019b66ab-db35-7dd7-bcb4-c23786bee52f",
        "status": "completed",
        "duration": 0,
        "recordingUrl": null,
        "transcriptText": "",
        "transcriptJson": null,
        "cost": "0.0096",
        "startedAt": "2025-12-28T20:34:58.164Z",
        "endedAt": "2025-12-28T20:35:07.295Z",
        "endedReason": "customer-ended-call",
        "summary": null,
        "createdAt": "2026-01-08T22:14:47.898Z",
        "updatedAt": "2026-01-08T22:15:04.830Z",
        "business": {
          "id": "6bef30a4-fc1b-4fb0-a438-9a85f87713b4",
          "name": "Callnfy"
        },
        "customer": null,
        "phoneNumber": null
      },
      {
        "id": "5f880cad-2ff7-4edf-b6af-c75c249540f4",
        "businessId": "6bef30a4-fc1b-4fb0-a438-9a85f87713b4",
        "customerId": null,
        "phoneNumberId": null,
        "assistantId": "bc1f093d-d27c-46d2-a606-95873f56be29",
        "callerPhone": null,
        "vapiCallId": "019b7de9-a8e4-7117-a70e-022f9fa3a93d",
        "status": "completed",
        "duration": 0,
        "recordingUrl": null,
        "transcriptText": "",
        "transcriptJson": null,
        "cost": "0.1029",
        "startedAt": "2026-01-02T08:53:44.687Z",
        "endedAt": "2026-01-02T08:54:52.520Z",
        "endedReason": "customer-ended-call",
        "summary": null,
        "createdAt": "2026-01-08T22:14:47.875Z",
        "updatedAt": "2026-01-08T22:15:04.795Z",
        "business": {
          "id": "6bef30a4-fc1b-4fb0-a438-9a85f87713b4",
          "name": "Callnfy"
        },
        "customer": null,
        "phoneNumber": null
      },
      {
        "id": "29a106ee-d2e5-48d4-8553-74eac5d1ad4e",
        "businessId": "6bef30a4-fc1b-4fb0-a438-9a85f87713b4",
        "customerId": null,
        "phoneNumberId": null,
        "assistantId": "bc1f093d-d27c-46d2-a606-95873f56be29",
        "callerPhone": null,
        "vapiCallId": "019b84fe-4029-711b-a215-82851ed61b14",
        "status": "completed",
        "duration": 0,
        "recordingUrl": null,
        "transcriptText": "",
        "transcriptJson": null,
        "cost": "0.0071",
        "startedAt": "2026-01-03T17:53:34.651Z",
        "endedAt": "2026-01-03T17:53:41.359Z",
        "endedReason": "customer-ended-call",
        "summary": null,
        "createdAt": "2026-01-08T22:14:47.852Z",
        "updatedAt": "2026-01-08T22:15:04.763Z",
        "business": {
          "id": "6bef30a4-fc1b-4fb0-a438-9a85f87713b4",
          "name": "Callnfy"
        },
        "customer": null,
        "phoneNumber": null
      },
      {
        "id": "e4866629-6d5b-4261-9474-3588b5f3ae53",
        "businessId": "6bef30a4-fc1b-4fb0-a438-9a85f87713b4",
        "customerId": null,
        "phoneNumberId": null,
        "assistantId": "bc1f093d-d27c-46d2-a606-95873f56be29",
        "callerPhone": null,
        "vapiCallId": "019b8583-be7f-7002-9a39-1f26eb0b142b",
        "status": "completed",
        "duration": 0,
        "recordingUrl": null,
        "transcriptText": "",
        "transcriptJson": null,
        "cost": "0.0165",
        "startedAt": "2026-01-03T20:19:23.215Z",
        "endedAt": "2026-01-03T20:19:39.140Z",
        "endedReason": "customer-ended-call",
        "summary": null,
        "createdAt": "2026-01-08T22:14:47.829Z",
        "updatedAt": "2026-01-08T22:15:04.725Z",
        "business": {
          "id": "6bef30a4-fc1b-4fb0-a438-9a85f87713b4",
          "name": "Callnfy"
        },
        "customer": null,
        "phoneNumber": null
      },
      {
        "id": "3f0ad17f-579a-48e6-a7c1-175bc47002bd",
        "businessId": "6bef30a4-fc1b-4fb0-a438-9a85f87713b4",
        "customerId": null,
        "phoneNumberId": null,
        "assistantId": "bc1f093d-d27c-46d2-a606-95873f56be29",
        "callerPhone": null,
        "vapiCallId": "019b85ab-d792-7117-add0-b316b500e9de",
        "status": "completed",
        "duration": 0,
        "recordingUrl": null,
        "transcriptText": "",
        "transcriptJson": null,
        "cost": "0.0103",
        "startedAt": "2026-01-03T21:03:11.020Z",
        "endedAt": "2026-01-03T21:03:20.846Z",
        "endedReason": "customer-ended-call",
        "summary": null,
        "createdAt": "2026-01-08T22:14:47.807Z",
        "updatedAt": "2026-01-08T22:15:04.694Z",
        "business": {
          "id": "6bef30a4-fc1b-4fb0-a438-9a85f87713b4",
          "name": "Callnfy"
        },
        "customer": null,
        "phoneNumber": null
      },
      {
        "id": "ba9bc540-af6c-4262-8f39-d43362f32731",
        "businessId": "6bef30a4-fc1b-4fb0-a438-9a85f87713b4",
        "customerId": null,
        "phoneNumberId": null,
        "assistantId": "bc1f093d-d27c-46d2-a606-95873f56be29",
        "callerPhone": null,
        "vapiCallId": "019b899f-8027-7551-9d80-1850f1a0534b",
        "status": "completed",
        "duration": 0,
        "recordingUrl": null,
        "transcriptText": "",
        "transcriptJson": null,
        "cost": "0.0216",
        "startedAt": "2026-01-04T15:28:11.000Z",
        "endedAt": "2026-01-04T15:28:31.947Z",
        "endedReason": "customer-ended-call",
        "summary": null,
        "createdAt": "2026-01-08T22:14:47.784Z",
        "updatedAt": "2026-01-08T22:15:04.662Z",
        "business": {
          "id": "6bef30a4-fc1b-4fb0-a438-9a85f87713b4",
          "name": "Callnfy"
        },
        "customer": null,
        "phoneNumber": null
      },
      {
        "id": "5df89106-23eb-45e4-832b-9435f2fdfcaa",
        "businessId": "6bef30a4-fc1b-4fb0-a438-9a85f87713b4",
        "customerId": null,
        "phoneNumberId": null,
        "assistantId": "bc1f093d-d27c-46d2-a606-95873f56be29",
        "callerPhone": null,
        "vapiCallId": "019b89f3-fa65-7118-b8c9-ad00f003360e",
        "status": "completed",
        "duration": 0,
        "recordingUrl": null,
        "transcriptText": "",
        "transcriptJson": null,
        "cost": "0.1819",
        "startedAt": "2026-01-04T17:00:27.498Z",
        "endedAt": "2026-01-04T17:02:25.696Z",
        "endedReason": "customer-ended-call",
        "summary": null,
        "createdAt": "2026-01-08T22:14:47.760Z",
        "updatedAt": "2026-01-08T22:15:04.623Z",
        "business": {
          "id": "6bef30a4-fc1b-4fb0-a438-9a85f87713b4",
          "name": "Callnfy"
        },
        "customer": null,
        "phoneNumber": null
      }
    ],
    "pagination": {
      "page": 1,
      "limit": 10,
      "total": 27,
      "totalPages": 3
    }
  }
}